package combined_employee_survivorship 

rule "Birthdate"
    no-loop true
    dialect "mvel"
    ruleflow-group "BirthdateGroup"
when
    $input : RecordIn( dataset.isMostCommon( birthdate, "Birthdate", false) )  
then
    dataset.survive( $input.TALEND_INTERNAL_ID, "Birthdate", drools.getRule().getName());
    dataset.survive( $input.TALEND_INTERNAL_ID, "GlobalAcctID", drools.getRule().getName());
    dataset.survive( $input.TALEND_INTERNAL_ID, "source", drools.getRule().getName());
    dataset.survive( $input.TALEND_INTERNAL_ID, "PostalCode", drools.getRule().getName());

end


