package combined_employee_survivorship 

rule "Phone"
    no-loop true
    dialect "mvel"
    ruleflow-group "PhoneGroup"
when
    $input : RecordIn( dataset.isMostCommon( phone, "Phone", false) )  
then
    dataset.survive( $input.TALEND_INTERNAL_ID, "Phone", drools.getRule().getName());

end


