package combined_employee_survivorship 

rule "Province"
    no-loop true
    dialect "mvel"
    ruleflow-group "ProvinceGroup"
when
    $input : RecordIn( dataset.isMostCommon( province, "Province", false) )  
then
    dataset.survive( $input.TALEND_INTERNAL_ID, "Province", drools.getRule().getName());

end


