package combined_employee_survivorship 

rule "SIN"
    no-loop true
    dialect "mvel"
    ruleflow-group "SINGroup"
when
    $input : RecordIn( dataset.isMostCommon( sin, "SIN", false) )  
then
    dataset.survive( $input.TALEND_INTERNAL_ID, "SIN", drools.getRule().getName());

end


