package account.survivorship 

rule "Rule_MostCommonZip"
    no-loop true
    dialect "mvel"
    ruleflow-group "Rule_MostCommonZipGroup"
when
    $input : RecordIn( dataset.isMostCommon( zip, "zip", false), zip matches "\\d{5}"  )  
then
    dataset.survive( $input.TALEND_INTERNAL_ID, "zip" );
    dataset.survive( $input.TALEND_INTERNAL_ID, "state" );
    dataset.survive( $input.TALEND_INTERNAL_ID, "country" );

end


