package account.survivorship 

rule "Rule_LatestPhone"
    no-loop true
    dialect "mvel"
    ruleflow-group "Rule_LatestPhoneGroup"
when
    $input : RecordIn( dataset.isLatest( date, "date" ) )  
then
    dataset.survive( $input.TALEND_INTERNAL_ID, "date" );
    dataset.survive( $input.TALEND_INTERNAL_ID, "phone" );

end


