package account.survivorship 

rule "Rule_MostCommonCity"
    no-loop true
    dialect "mvel"
    ruleflow-group "Rule_MostCommonCityGroup"
when
    $input : RecordIn( dataset.isMostCommon( city, "city", false) )  
then
    dataset.survive( $input.TALEND_INTERNAL_ID, "city" );

end


